<?xml version="1.0" encoding="utf-8"?>
<!-- Generator: Adobe Illustrator 22.1.0, SVG Export Plug-In . SVG Version: 6.00 Build 0)  -->
<svg version="1.1" id="Warstwa_1" xmlns="http://www.w3.org/2000/svg" xmlns:xlink="http://www.w3.org/1999/xlink" x="0px" y="0px"
	 viewBox="0 0 1920 520.7" style="enable-background:new 0 0 1920 520.7;" xml:space="preserve">
<style type="text/css">
	.st0{fill:#FFFFFF;}
	.st1{fill:#A45EA2;}
	.st2{fill:#5C8FCE;}
	.st3{fill:#947CC6;}
	.st4{fill:#640C00;}
	.st5{fill:#F7A600;}
	.st6{fill:#FDCA6F;}
	.st7{opacity:0.51;}
	.st8{fill:#FECC58;}
	.st9{fill:none;stroke:#FFFFFF;stroke-width:7;stroke-miterlimit:10;}
</style>
<g>
	<g>
		<path class="st0" d="M542.3,295.8l-30-0.2l-0.4,68.1c-4.5,0.8-10.5,1.1-15.3,1c-4.2,0-10.5-0.3-14.7-1.2l1.1-191.4l1.7-2
			c21.2-0.2,39-0.6,58.3-0.5c37.6,0.2,64.6,21,64.4,63.4C607.1,274.4,580.1,296,542.3,295.8z M512.4,271.8
			c10.5,0.1,23.5-0.1,28.8-0.1c28.3,0.2,34.6-21.8,34.7-38.8c0.1-17.2-6-39.1-34.3-39.2c-7.9,0-19.5-0.1-28.8-0.5L512.4,271.8z"/>
		<path class="st0" d="M666,364.6c-4,0.8-9.3,1.1-14.4,1c-5.4,0-10.7-0.3-14.7-1.2l0.6-103.5c0.1-10.2-3-14.7-12.4-14.8l-3.1,0
			c-0.8-3.7-1.4-6.8-1.4-10.5c0-3.4,0.6-6.8,1.5-10.7c7.1-0.8,13.9-1.1,17.8-1l4,0c14.1,0.1,22.8,9.7,22.8,25.3L666,364.6z
			 M631.8,173.3c3.4-2,9.9-3.3,15.6-3.3c5.1,0,12.4,1.5,15.5,3.5c1.7,3.4,2.5,8.8,2.5,12.7c0,4-0.9,9-2.6,12.4
			c-2.8,2.2-10.5,3.6-15.6,3.6c-5.7,0-12.4-1.5-15.5-3.8c-1.7-3.4-2.5-8.5-2.5-12.5C629.2,181.8,630,176.7,631.8,173.3z"/>
		<path class="st0" d="M724.3,304.5c1,23.5,8.5,40.5,32.6,40.6c14.1,0.1,27.5-4.4,39.4-10.5c4.8,4.5,8.1,12.8,9.2,18.7
			c-13.6,9.5-33.5,15.6-53.2,15.5c-44.7-0.3-58-35.4-57.8-73.6c0.2-42.1,20.2-73.7,59.5-73.5c36.5,0.2,55.8,27.2,55.6,60.8
			c-0.1,9-0.6,14.4-2.1,22.3L724.3,304.5z M724.4,283.3l57.1,0.3l0-3.7c0.1-19.8-7.7-36.2-28.1-36.4
			C735.4,243.5,726,258.4,724.4,283.3z"/>
		<path class="st0" d="M842.7,224c13.3,2.9,21.7,12,25.6,25.3c6.6-14.4,18.2-25.1,37.2-24.9c5.1,0,9.6,0.6,15,1.8
			c0,7.9-2.1,19.5-7.2,27.7c-3.7-1.2-7.6-1.2-11.6-1.5c-15.3-0.1-24.4,9.8-30.4,21.3l-0.5,92.2c-4,0.8-9.3,1.1-14.4,1
			c-5.4,0-10.7-0.3-14.7-1.2l0.6-97c0.1-15-5.5-24.6-10.3-29.2C833.3,234.1,837.9,227.1,842.7,224z"/>
		<path class="st0" d="M1048.7,336.9c-0.1,9.9,1,19,4.7,25.8c-4.3,3.4-11.3,6.2-18.4,6.1c-11.6-0.1-15.5-6.6-15.4-18.7l0.4-71.8
			c0.1-18.9-3.8-27.2-17.4-27.2c-11.3-0.1-25.8,6.4-35.7,17.3l-0.6,98.1c-4,0.8-9.3,1.1-14.4,1c-5.4,0-10.5-0.3-14.7-1.2l0.8-139.1
			l1.7-1.7l11,0.1c11,0.1,15.5,6.6,16,17.6c12.2-11,28.1-18.8,45.1-18.7c26.6,0.2,37.5,20.6,37.3,46.6L1048.7,336.9z"/>
		<path class="st0" d="M1118.7,367.3c-4,0.8-9.3,1.1-14.4,1c-5.4,0-10.7-0.3-14.7-1.2l0.6-103.5c0.1-10.2-3-14.7-12.4-14.8l-3.1,0
			c-0.8-3.7-1.4-6.8-1.4-10.5c0-3.4,0.6-6.8,1.5-10.7c7.1-0.8,13.9-1.1,17.8-1l4,0c14.1,0.1,22.8,9.7,22.8,25.3L1118.7,367.3z
			 M1084.4,175.9c3.4-2,9.9-3.3,15.6-3.3c5.1,0,12.4,1.5,15.5,3.5c1.7,3.4,2.5,8.8,2.5,12.7c0,4-0.9,9-2.6,12.4
			c-2.8,2.2-10.5,3.6-15.6,3.6c-5.7,0-12.4-1.5-15.5-3.8c-1.7-3.4-2.5-8.5-2.5-12.5C1081.9,184.4,1082.7,179.3,1084.4,175.9z"/>
		<path class="st0" d="M1258,339c3.6,9.6,7.2,17.9,13.4,22.1c-4.3,4.8-12.2,9-19.6,8.9c-10.5-0.1-14.4-5.7-18.6-16.5l-11.1-27.8
			c-5.9-14.7-10.9-18.7-23.9-18.8c-4.2,0-8.5,0.2-13,0.5l-0.4,60.2c-4,0.8-9.1,1.1-14.4,1c-5.1,0-9.9-0.3-14.1-1.2l1.2-206.1
			l1.7-1.7l11.3,0.1c12.2,0.1,15.5,5.7,15.4,18.8l-0.6,104.6l9.6-0.5c3.1,0,5.1-1.1,6.8-3.9l25.1-38.9c4.6-7.9,9.1-12.4,19-12.3
			c5.9,0,10.2,0.1,15.5,0.4l1.7,2.3l-31.1,48.7c-2.9,4.5-6,8.2-9.4,11c11.9,3.2,20,11.1,25.9,25.6L1258,339z"/>
		<path class="st0" d="M1389.5,370.8c-11.6-2.3-18.9-8.9-22.5-17.7c-10.2,9.8-24.7,19.1-42.8,19c-28.3-0.2-41.7-21.7-41.6-41.8
			c0.2-32.2,23.7-46.8,54.6-46.6c7.6,0,17.8,0.7,27.1,2.1l0.1-11c0.1-17.8-8.3-25.2-23-25.3c-14.1-0.1-29.7,4.9-44.5,10.5
			c-4.8-4.6-8.1-13.9-8.4-21.3c15.9-7,39.7-12.8,58.6-12.7c28,0.2,46.3,15.3,46.1,47.5l-0.3,58c-0.1,10.7,1.3,18.7,7.8,24.4
			C1398.9,361.3,1394.4,368,1389.5,370.8z M1364,332.2l0.2-26.9c-8.5-0.9-17.5-1.2-25.4-1.3c-17-0.1-26.9,8.9-27,24.2
			c-0.1,11.6,6.7,20.7,18.8,20.8C1341.3,349.1,1353.8,343.5,1364,332.2z"/>
		<path class="st0" d="M1433.4,227.5c13.3,2.9,21.7,12,25.6,25.3c6.6-14.4,18.2-25.1,37.2-25c5.1,0,9.6,0.6,15,1.8
			c0,7.9-2.1,19.5-7.2,27.7c-3.7-1.2-7.6-1.2-11.6-1.5c-15.3-0.1-24.4,9.8-30.4,21.3l-0.5,92.2c-4,0.8-9.3,1.1-14.4,1
			c-5.4,0-10.7-0.3-14.7-1.2l0.6-97c0.1-15-5.5-24.6-10.3-29.2C1424,237.6,1428.5,230.5,1433.4,227.5z"/>
		<path class="st0" d="M1524.3,338.8c11.8,6.6,26.5,12.6,39.5,12.7c15.6,0.1,25.2-6.9,25.6-17.4c0-7.9-6.1-15-17.7-19.3l-15.8-6
			c-19.8-7.5-35.8-19.2-35.7-40.6c0.2-26,21.7-41.7,50-41.6c15.3,0.1,34.5,5,46.3,10.4c0,7.4-3.5,16.9-8.9,21.4
			c-9.6-4.6-23.7-9.5-37.6-9.6c-12.4-0.1-20.4,6.7-20.5,16.3c0,8.2,5.6,12.8,17.4,17.3l16.9,6.6c20.9,8,35.8,20.9,35.7,42.6
			c-0.2,26.3-22.6,42-54.3,41.8c-20.6-0.1-38.7-7-50.8-14.4C1514.9,352.6,1519.2,343.3,1524.3,338.8z"/>
		<path class="st0" d="M1747.4,341.8c3.6,9.6,7.2,17.9,13.4,22.1c-4.3,4.8-12.2,9-19.6,8.9c-10.5-0.1-14.4-5.7-18.6-16.5l-11.1-27.8
			c-5.9-14.7-10.9-18.7-23.9-18.8c-4.2,0-8.5,0.2-13,0.5l-0.4,60.2c-4,0.8-9.1,1.1-14.4,1c-5.1,0-9.9-0.3-14.1-1.2l1.2-206.1
			l1.7-1.7l11.3,0.1c12.2,0.1,15.5,5.7,15.4,18.8l-0.6,104.6l9.6-0.5c3.1,0,5.1-1.1,6.8-3.9l25.1-38.9c4.6-7.9,9.1-12.4,19-12.3
			c5.9,0,10.2,0.1,15.6,0.4l1.7,2.3l-31.1,48.7c-2.9,4.5-6,8.2-9.4,11c11.9,3.2,20,11.1,25.9,25.6L1747.4,341.8z"/>
		<path class="st0" d="M1879,373.7c-11.6-2.3-18.9-8.9-22.5-17.7c-10.2,9.8-24.7,19.1-42.8,19c-28.3-0.2-41.7-21.7-41.6-41.8
			c0.2-32.2,23.7-46.8,54.6-46.6c7.6,0,17.8,0.7,27.1,2.1l0.1-11c0.1-17.8-8.3-25.2-23-25.3c-14.1-0.1-29.7,4.9-44.5,10.5
			c-4.8-4.6-8.1-13.9-8.4-21.3c15.9-7,39.7-12.8,58.6-12.7c28,0.2,46.3,15.3,46.1,47.5l-0.3,58c-0.1,10.7,1.3,18.7,7.8,24.4
			C1888.4,364.2,1883.8,370.9,1879,373.7z M1853.5,335.1l0.2-26.9c-8.5-0.9-17.5-1.2-25.4-1.3c-17-0.1-26.9,8.9-27,24.2
			c-0.1,11.6,6.7,20.7,18.8,20.8C1830.8,351.9,1843.2,346.4,1853.5,335.1z"/>
	</g>
	<path class="st0" d="M141.9,161.6c-1.4,0-3.5,0.8-4.1,1.8c-3.1,5.3-5.9,10.9-9.2,17c9.4,0,17.5,0.3,25.5-0.1
		c5.6-0.3,6.6,1.6,6.5,5.9c-0.3,12.1-7.5,20.4-18.4,27.5c-14.4,9.3-17.3,24.4-8.3,37.2c7.7-7,15.3-14.5,23.5-21.3
		c10.5-8.7,15.3-18.8,13-31.1c-1.1-5.8-1.9-11.6-2.9-18c7,0,13.2-0.4,19.3,0.2c2.9,0.3,6.9,1.7,8.2,3.7c3.6,5.4,6.8,11.2,8.8,17.2
		c6.7,20,8,40.6,8.3,61.3c0,3.4-1.4,8.2,5.2,7.9c6.2-0.3,4.1-5.1,4.2-8.1c0.1-27.1,0.1-54.2,0.1-81.8c-0.1,0,0.3-0.2,0.6-0.2
		c6.8-0.1,13.6-0.1,20.5-0.2c11.8,0,11.8,0,14,9.9c0.1,0.4,0.1,0.7,0.2,1.1c3.4,28.6,8.3,57.1,9.7,85.7c1.9,40.2,1.2,80.4,1.7,120.6
		c0,3.3-1.7,8.3,4.7,8.4c6.6,0.1,4.7-5,4.7-8.2c0.1-70.2,0-140.4,0.2-210.6c0-4.7,1.6-9.5,3-14.1c1.1-3.7,2.9-7.3,4.4-10.8
		c-1-0.4-1.2-0.5-1.4-0.5C236.6,161.6,189.2,161.5,141.9,161.6z"/>
	<path class="st0" d="M362.6,194.1c16.6-18.4,25.8-42.3,25.8-67.4c0-8.2-1-16.3-3-24.3l-0.1-0.5l-0.2-0.5
		c-7.1-21.3-20.7-39.9-38.5-52.4c-16.8-11.9-37.4-18.5-57.9-18.5c-4.6,0-9.1,0.3-13.6,1c-24.3,3.2-47.3,16-63.3,35.3
		c-18.9-25.5-48.9-41-81.1-41C75.2,25.8,29.9,71,29.9,126.7c0,25.1,9.3,49,25.8,67.4c-5.9,6.6-10.9,13.9-15,22l-0.3,0.5l-0.2,0.6
		c-8.7,22.1-9.9,46.3-3.3,68.3c4.2,14.3,11.7,27.4,21.5,38.4c-18.4,18.9-28.5,43.7-28.5,70.3c0,16.6,4.1,33.1,12,47.7l0.2,0.4
		l0.3,0.4c10.7,16.6,25.4,29.7,42.7,37.9c13.4,6.4,28.4,9.8,43.3,9.8c10.4,0,20.5-1.6,30.2-4.7c18.4-5.7,35-17.2,47.3-32.4
		c18.9,26,49.2,41.8,81.7,41.8c55.6,0,100.9-45.3,100.9-100.9c0-24.5-8.9-48-24.8-66.3c15.9-18.3,24.8-41.8,24.8-66.3
		C388.5,236.4,379.2,212.5,362.6,194.1z M375.7,394.1c0,48.7-39.5,88.2-88.2,88.2c-33.1,0-61.9-18.3-77-45.3
		c0.1-0.2,0.2-0.5,0.4-0.7c5.2-10.8,8.1-22.7,8.5-34.6c0.4-11.9-1.7-23.7-6.2-34.4c5.2,22.6,1.9,46.2-9,65.5
		c-10.8,19.3-28.8,34.2-49.7,40.7c-8.5,2.8-17.3,4.1-26.2,4.1c-13,0-26-2.9-37.8-8.5c-15.1-7.2-28.1-18.8-37.4-33.3
		c-6.7-12.4-10.5-26.6-10.5-41.7c0-25.1,10.5-47.7,27.3-63.7c4.4,3.8,9.1,7.3,14.1,10.2c10.6,6,22.3,10.1,34.3,11.5
		c3.6,0.4,7.2,0.6,10.9,0.6c8.5,0,16.9-1.2,25-3.6c11.6-3.4,22.3-9.2,31.4-16.8c9-7.7,16.5-17.1,21.4-27.6
		c-13.3,19-33,32.3-54.7,37.3c-6.4,1.5-13,2.2-19.6,2.2c-15.4,0-30.7-4-43.9-11.8c-19-10.9-33.3-29.3-39.6-50.5
		c-5.8-19.3-4.7-40.6,2.9-60c5.4-10.7,12.9-20.1,21.9-27.7c-19.2-16.2-31.4-40.4-31.4-67.4c0-48.7,39.5-88.2,88.2-88.2
		c33.1,0,61.8,18.3,76.9,45.2c-3.1,6.4-5.4,13.1-6.9,20c-2.4,11.6-2.4,23.6,0.2,34.9c-1.2-23.2,6.1-45.8,20.1-63
		C235,58.4,255.3,46.9,277,44.1c3.9-0.6,7.9-0.8,11.8-0.8c17.9,0,35.8,5.7,50.6,16.2c15.6,11,27.5,27.3,33.7,46
		c1.7,6.8,2.6,13.9,2.6,21.2c0,27.1-12.2,51.2-31.4,67.4c19.2,16.2,31.4,40.4,31.4,67.4c0,26.4-11.6,50.1-30,66.3
		C364.1,343.9,375.7,367.6,375.7,394.1z"/>
	<g class="st7">
		<path class="st0" d="M294,339.3c8.1,0.3,16.3,3,23.4,7.5c7.1,4.4,13.3,10.6,17.7,17.8c4.5,7.2,7.2,15.5,8,23.8
			c0.8,8.3-0.4,16.8-3.8,24.2c0.3-8.1-0.3-15.9-2.1-23.3c-1.8-7.4-4.7-14.4-8.6-20.8c-3.9-6.4-8.8-12.1-14.7-17
			C308,346.7,301.4,342.7,294,339.3z"/>
	</g>
	<g class="st7">
		<path class="st0" d="M294,76.3c8.1,0.3,16.3,3,23.4,7.5c7.1,4.4,13.3,10.6,17.7,17.8c4.5,7.2,7.2,15.5,8,23.8
			c0.8,8.3-0.4,16.8-3.8,24.2c0.3-8.1-0.3-15.9-2.1-23.3c-1.8-7.4-4.7-14.4-8.6-20.8c-3.9-6.4-8.8-12.1-14.7-17
			C308,83.7,301.4,79.7,294,76.3z"/>
	</g>
</g>
</svg>
